
{
    "designs":[
        {
            "name":"Application",
            "package_name":"javafx.application",
            "x":0.0,
            "y":0.0,
            "is_interface":false,
            "variables":[
            ],
            "methods":[
                {
                    "attribute_name":"start",
                    "type":"void",
                    "access":"public",
                    "attribute_is_abstract":true,
                    "parameters":[
                        {
                            "parameter_type":"Stage"
                        }
                    ],
                    "is_method":true
                }
            ],
            "parents":[
            ],
            "is_abstract":true,
            "height":100.0,
            "width":200.0
        },
        {
            "name":"ThreadExample",
            "package_name":"",
            "x":100.0,
            "y":100.0,
            "is_interface":false,
            "variables":[
                {
                    "attribute_name":"START_TEXT",
                    "type":"String",
                    "access":"public",
                    "is_method":false
                },
                {
                    "attribute_name":"PAUSE_TEXT",
                    "type":"String",
                    "access":"public",
                    "is_method":false
                },
                {
                    "attribute_name":"window",
                    "type":"Stage",
                    "access":"private",
                    "is_method":false
                },
                {
                    "attribute_name":"appPane",
                    "type":"BorderPane",
                    "access":"private",
                    "is_method":false
                },
                {
                    "attribute_name":"topPane",
                    "type":"FlowPane",
                    "access":"private",
                    "is_method":false
                },
                {
                    "attribute_name":"startButton",
                    "type":"Button",
                    "access":"private",
                    "is_method":false
                },
                {
                    "attribute_name":"pauseButton",
                    "type":"Button",
                    "access":"private",
                    "is_method":false
                },
                {
                    "attribute_name":"scrollPane",
                    "type":"ScrollPane",
                    "access":"private",
                    "is_method":false
                },
                {
                    "attribute_name":"textArea",
                    "type":"TextArea",
                    "access":"private",
                    "is_method":false
                },
                {
                    "attribute_name":"dataThread",
                    "type":"Thread",
                    "access":"private",
                    "is_method":false
                },
                {
                    "attribute_name":"dataTask",
                    "type":"Task",
                    "access":"private",
                    "is_method":false
                },
                {
                    "attribute_name":"counterThread",
                    "type":"Thread",
                    "access":"private",
                    "is_method":false
                },
                {
                    "attribute_name":"counterTask",
                    "type":"Task",
                    "access":"private",
                    "is_method":false
                },
                {
                    "attribute_name":"work",
                    "type":"boolean",
                    "access":"private",
                    "is_method":false
                }
            ],
            "methods":[
                {
                    "attribute_name":"start",
                    "type":"void",
                    "access":"public",
                    "attribute_is_abstract":false,
                    "parameters":[
                        {
                            "parameter_type":"Stage"
                        }
                    ],
                    "is_method":true
                },
                {
                    "attribute_name":"startWork",
                    "type":"void",
                    "access":"public",
                    "attribute_is_abstract":false,
                    "parameters":[
                    ],
                    "is_method":true
                },
                {
                    "attribute_name":"pauseWork",
                    "type":"void",
                    "access":"public",
                    "attribute_is_abstract":false,
                    "parameters":[
                    ],
                    "is_method":true
                },
                {
                    "attribute_name":"doWork",
                    "type":"boolean",
                    "access":"public",
                    "attribute_is_abstract":false,
                    "parameters":[
                    ],
                    "is_method":true
                },
                {
                    "attribute_name":"appendText",
                    "type":"void",
                    "access":"public",
                    "attribute_is_abstract":false,
                    "parameters":[
                        {
                            "parameter_type":"String"
                        }
                    ],
                    "is_method":true
                },
                {
                    "attribute_name":"sleep",
                    "type":"void",
                    "access":"public",
                    "attribute_is_abstract":false,
                    "parameters":[
                        {
                            "parameter_type":"int"
                        }
                    ],
                    "is_method":true
                },
                {
                    "attribute_name":"initLayout",
                    "type":"void",
                    "access":"private",
                    "attribute_is_abstract":false,
                    "parameters":[
                    ],
                    "is_method":true
                },
                {
                    "attribute_name":"initHandlers",
                    "type":"void",
                    "access":"private",
                    "attribute_is_abstract":false,
                    "parameters":[
                    ],
                    "is_method":true
                },
                {
                    "attribute_name":"initWindow",
                    "type":"void",
                    "access":"private",
                    "attribute_is_abstract":false,
                    "parameters":[
                        {
                            "parameter_type":"Stage"
                        }
                    ],
                    "is_method":true
                },
                {
                    "attribute_name":"initThreads",
                    "type":"void",
                    "access":"private",
                    "attribute_is_abstract":false,
                    "parameters":[
                    ],
                    "is_method":true
                },
                {
                    "attribute_name":"main",
                    "type":"void",
                    "access":"public",
                    "attribute_is_abstract":false,
                    "parameters":[
                        {
                            "parameter_type":"String[]"
                        }
                    ],
                    "is_method":true
                }
            ],
            "parents":[
                {
                    "parent_name":"Application",
                    "parent_package":"javafx.application"
                }
            ],
            "is_abstract":false,
            "height":100.0,
            "width":200.0
        },
        {
            "name":"Task",
            "package_name":"javafx.concurrent",
            "x":200.0,
            "y":200.0,
            "is_interface":false,
            "variables":[
            ],
            "methods":[
            ],
            "parents":[
            ],
            "is_abstract":true,
            "height":100.0,
            "width":200.0
        },
        {
            "name":"CounterTask",
            "package_name":"",
            "x":300.0,
            "y":300.0,
            "is_interface":false,
            "variables":[
                {
                    "attribute_name":"app",
                    "type":"ThreadExample",
                    "access":"private",
                    "is_method":false
                },
                {
                    "attribute_name":"counter",
                    "type":"int",
                    "access":"private",
                    "is_method":false
                }
            ],
            "methods":[
                {
                    "attribute_name":"CounterTask",
                    "type":"",
                    "access":"public",
                    "attribute_is_abstract":false,
                    "parameters":[
                        {
                            "parameter_type":"ThreadExample"
                        }
                    ],
                    "is_method":true
                },
                {
                    "attribute_name":"call",
                    "type":"Void",
                    "access":"protected",
                    "attribute_is_abstract":false,
                    "parameters":[
                    ],
                    "is_method":true
                }
            ],
            "parents":[
                {
                    "parent_name":"Task",
                    "parent_package":"javafx.concurrent"
                }
            ],
            "is_abstract":false,
            "height":100.0,
            "width":200.0
        },
        {
            "name":"DateTask",
            "package_name":"",
            "x":400.0,
            "y":400.0,
            "is_interface":false,
            "variables":[
                {
                    "attribute_name":"app",
                    "type":"ThreadExample",
                    "access":"private",
                    "is_method":false
                },
                {
                    "attribute_name":"now",
                    "type":"Date",
                    "access":"private",
                    "is_method":false
                }
            ],
            "methods":[
                {
                    "attribute_name":"DateTask",
                    "type":"",
                    "access":"public",
                    "attribute_is_abstract":false,
                    "parameters":[
                        {
                            "parameter_type":"ThreadExample"
                        }
                    ],
                    "is_method":true
                },
                {
                    "attribute_name":"call",
                    "type":"Void",
                    "access":"protected",
                    "attribute_is_abstract":false,
                    "parameters":[
                    ],
                    "is_method":true
                }
            ],
            "parents":[
                {
                    "parent_name":"Task",
                    "parent_package":"javafx.concurrent"
                }
            ],
            "is_abstract":false,
            "height":100.0,
            "width":200.0
        },
        {
            "name":"EventHandler",
            "package_name":"javafx.event",
            "x":500.0,
            "y":500.0,
            "is_interface":true,
            "variables":[
            ],
            "methods":[
                {
                    "attribute_name":"handle",
                    "type":"void",
                    "access":"public",
                    "attribute_is_abstract":false,
                    "parameters":[
                        {
                            "parameter_type":"Event"
                        }
                    ],
                    "is_method":true
                }
            ],
            "parents":[
            ],
            "is_abstract":false,
            "height":100.0,
            "width":200.0
        },
        {
            "name":"PauseHandler",
            "package_name":"",
            "x":600.0,
            "y":600.0,
            "is_interface":false,
            "variables":[
                {
                    "attribute_name":"app",
                    "type":"ThreadExample",
                    "access":"private",
                    "is_method":false
                }
            ],
            "methods":[
                {
                    "attribute_name":"PauseHandler",
                    "type":"",
                    "access":"public",
                    "attribute_is_abstract":false,
                    "parameters":[
                        {
                            "parameter_type":"ThreadExample"
                        }
                    ],
                    "is_method":true
                },
                {
                    "attribute_name":"handle",
                    "type":"void",
                    "access":"public",
                    "attribute_is_abstract":false,
                    "parameters":[
                        {
                            "parameter_type":"Event"
                        }
                    ],
                    "is_method":true
                }
            ],
            "parents":[
                {
                    "parent_name":"EventHandler",
                    "parent_package":"javafx.event"
                }
            ],
            "is_abstract":false,
            "height":100.0,
            "width":200.0
        },
        {
            "name":"StartHandler",
            "package_name":"",
            "x":700.0,
            "y":700.0,
            "is_interface":false,
            "variables":[
                {
                    "attribute_name":"app",
                    "type":"ThreadExample",
                    "access":"private",
                    "is_method":false
                }
            ],
            "methods":[
                {
                    "attribute_name":"StartHandler",
                    "type":"",
                    "access":"public",
                    "attribute_is_abstract":false,
                    "parameters":[
                        {
                            "parameter_type":"ThreadExample"
                        }
                    ],
                    "is_method":true
                },
                {
                    "attribute_name":"handle",
                    "type":"void",
                    "access":"public",
                    "attribute_is_abstract":false,
                    "parameters":[
                        {
                            "parameter_type":"Event"
                        }
                    ],
                    "is_method":true
                }
            ],
            "parents":[
                {
                    "parent_name":"EventHandler",
                    "parent_package":"javafx.event"
                }
            ],
            "is_abstract":false,
            "height":100.0,
            "width":200.0
        },
        {
            "name":"Date",
            "package_name":"java.util",
            "x":800.0,
            "y":800.0,
            "is_interface":false,
            "variables":[
            ],
            "methods":[
            ],
            "parents":[
            ],
            "is_abstract":false,
            "height":100.0,
            "width":200.0
        },
        {
            "name":"Stage",
            "package_name":"javafx.stage",
            "x":900.0,
            "y":900.0,
            "is_interface":false,
            "variables":[
            ],
            "methods":[
            ],
            "parents":[
            ],
            "is_abstract":false,
            "height":100.0,
            "width":200.0
        },
        {
            "name":"BorderPane",
            "package_name":"javafx.scene.layout",
            "x":1000.0,
            "y":1000.0,
            "is_interface":false,
            "variables":[
            ],
            "methods":[
            ],
            "parents":[
            ],
            "is_abstract":false,
            "height":100.0,
            "width":200.0
        },
        {
            "name":"FlowPane",
            "package_name":"javafx.scene.layout",
            "x":1100.0,
            "y":1100.0,
            "is_interface":false,
            "variables":[
            ],
            "methods":[
            ],
            "parents":[
            ],
            "is_abstract":false,
            "height":100.0,
            "width":200.0
        },
        {
            "name":"Button",
            "package_name":"javafx.scene.control",
            "x":1200.0,
            "y":1200.0,
            "is_interface":false,
            "variables":[
            ],
            "methods":[
            ],
            "parents":[
            ],
            "is_abstract":false,
            "height":100.0,
            "width":200.0
        },
        {
            "name":"ScrollPane",
            "package_name":"javafx.scene.control",
            "x":1300.0,
            "y":1300.0,
            "is_interface":false,
            "variables":[
            ],
            "methods":[
            ],
            "parents":[
            ],
            "is_abstract":false,
            "height":100.0,
            "width":200.0
        },
        {
            "name":"TextArea",
            "package_name":"javafx.scene.control",
            "x":1400.0,
            "y":1400.0,
            "is_interface":false,
            "variables":[
            ],
            "methods":[
            ],
            "parents":[
            ],
            "is_abstract":false,
            "height":100.0,
            "width":200.0
        },
        {
            "name":"Thread",
            "package_name":"java.lang",
            "x":1500.0,
            "y":1500.0,
            "is_interface":false,
            "variables":[
            ],
            "methods":[
            ],
            "parents":[
            ],
            "is_abstract":false,
            "height":100.0,
            "width":200.0
        },
        {
            "name":"Comparable",
            "package_name":"java.lang",
            "x":0.0,
            "y":500.0,
            "is_interface":true,
            "variables":[
            ],
            "methods":[
                {
                    "attribute_name":"compareTo",
                    "type":"int",
                    "access":"public",
                    "attribute_is_abstract":false,
                    "parameters":[
                        {
                            "parameter_type":"T"
                        }
                    ],
                    "is_method":true
                }
            ],
            "parents":[
            ],
            "is_abstract":false,
            "height":100.0,
            "width":200.0
        }
    ]
}